[
  {
    "name":"Paul Shan",
    "roll": "001"
  },
  {
    "name":"John Doe",
    "roll": "002"
  },
  {
    "name":"Sachin Tendulkar",
    "roll": "003"
  },
  {
    "name":"Aamir Khan",
    "roll": "004"
  },
  {
    "name":"Kavin Petersen",
    "roll": "005"
  },
  {
    "name":"David Cooper",
    "roll": "006"
  },
  {
    "name":"Pit Bull",
    "roll": "007"
  },
  {
    "name":"Barak Obama",
    "roll": "008"
  },
  {
    "name":"Paul Harvie",
    "roll": "009"
  },
  {
    "name":"Aakash Debnath",
    "roll": "010"
  },
  {
    "name":"Ankit Pathak",
    "roll": "011"
  },
  {
    "name":"Kavin Cooper",
    "roll": "012"
  },
  {
    "name":"Bread Pitt",
    "roll": "013"
  },
  {
    "name":"Russell Crowe",
    "roll": "014"
  },
  {
    "name":"Saurav Gangully",
    "roll": "015"
  },
  {
    "name":"Pinak Das",
    "roll": "016"
  },
  {
    "name":"Ross Taylor",
    "roll": "017"
  },
  {
    "name":"Dennis Ritchie",
    "roll": "018"
  },
  {
    "name":"Steve Jobs",
    "roll": "019"
  },
  {
    "name":"Prasenjit Paul",
    "roll": "020"
  }
]